(kicad_symbol_lib (version 20220914) (generator kicad_symbol_editor)
  (symbol "black-pcm1802-board" (in_bom yes) (on_board yes)
    (property "Reference" "U" (at 0 17.78 0)
      (effects (font (size 1.27 1.27)))
    )
    (property "Value" "" (at -7.62 -3.81 0)
      (effects (font (size 1.27 1.27)))
    )
    (property "Footprint" "black-pcm1802:black-pcm1802-board" (at 0 -16.51 0)
      (effects (font (size 1.27 1.27)) hide)
    )
    (property "Datasheet" "" (at -7.62 -3.81 0)
      (effects (font (size 1.27 1.27)) hide)
    )
    (symbol "black-pcm1802-board_1_1"
      (rectangle (start -7.62 13.97) (end 8.89 -13.97)
        (stroke (width 0) (type default))
        (fill (type background))
      )
      (text "PCM1802\nBlack board" (at 5.08 0 900)
        (effects (font (size 1.27 1.27)))
      )
      (pin power_in line (at -10.16 11.43 0) (length 2.54)
        (name "+5V" (effects (font (size 1.27 1.27))))
        (number "1" (effects (font (size 1.27 1.27))))
      )
      (pin power_in line (at -10.16 8.89 0) (length 2.54)
        (name "+3.3V" (effects (font (size 1.27 1.27))))
        (number "2" (effects (font (size 1.27 1.27))))
      )
      (pin power_in line (at -10.16 6.35 0) (length 2.54)
        (name "GND" (effects (font (size 1.27 1.27))))
        (number "3" (effects (font (size 1.27 1.27))))
      )
      (pin output line (at -10.16 -1.27 0) (length 2.54)
        (name "DOUT" (effects (font (size 1.27 1.27))))
        (number "4" (effects (font (size 1.27 1.27))))
      )
      (pin bidirectional line (at -10.16 -3.81 0) (length 2.54)
        (name "BCK" (effects (font (size 1.27 1.27))))
        (number "5" (effects (font (size 1.27 1.27))))
      )
      (pin bidirectional line (at -10.16 -6.35 0) (length 2.54)
        (name "FSY" (effects (font (size 1.27 1.27))))
        (number "6" (effects (font (size 1.27 1.27))))
      )
      (pin bidirectional line (at -10.16 -8.89 0) (length 2.54)
        (name "LRCK" (effects (font (size 1.27 1.27))))
        (number "7" (effects (font (size 1.27 1.27))))
      )
      (pin input line (at -10.16 3.81 0) (length 2.54)
        (name "PDW" (effects (font (size 1.27 1.27))))
        (number "8" (effects (font (size 1.27 1.27))))
      )
      (pin bidirectional line (at -10.16 -11.43 0) (length 2.54)
        (name "SCK" (effects (font (size 1.27 1.27))))
        (number "9" (effects (font (size 1.27 1.27))))
      )
    )
  )
)
